<?xml version="1.0" encoding="utf-8"?>
<!-- Generator: Adobe Illustrator 19.2.1, SVG Export Plug-In . SVG Version: 6.00 Build 0)  -->
<svg version="1.1" id="Layer_1" xmlns="http://www.w3.org/2000/svg" xmlns:xlink="http://www.w3.org/1999/xlink" x="0px" y="0px"
	 viewBox="0 0 58.3 32.6" style="enable-background:new 0 0 58.3 32.6;" xml:space="preserve">
<style type="text/css">
	.st0{fill:#3366CC;}
	.st1{fill:#FFFFFF;}
	.st2{fill:#FF3333;}
	.st3{fill:none;}
</style>
<g>
	<rect x="0" y="16.6" class="st0" width="29.2" height="16"/>
	<rect class="st1" width="29.2" height="16"/>
	<rect x="29.2" y="16.6" class="st1" width="29.2" height="16"/>
	<rect x="29.2" class="st2" width="29.2" height="16"/>
	<path class="st0" d="M14.6,9.8l2.1,1.6l-0.8-2.5l2.1-1.5h-2.6l-0.8-2.6l-0.8,2.6h-2.6l2.1,1.5l-0.8,2.5L14.6,9.8z"/>
	<path class="st2" d="M42.3,26.4l2.1,1.6l-0.8-2.5l2.1-1.5h-2.6l-0.8-2.6l-0.8,2.6h-2.6l2.1,1.5L40.1,28L42.3,26.4z"/>
	<path class="st3" d="M29.5,17.5h10.4v10.4H29.5V17.5z"/>
</g>
</svg>
