<?xml version="1.0" encoding="utf-8"?>
<!-- Generator: Adobe Illustrator 19.2.0, SVG Export Plug-In . SVG Version: 6.00 Build 0)  -->
<svg version="1.1" id="Layer_1" xmlns="http://www.w3.org/2000/svg" xmlns:xlink="http://www.w3.org/1999/xlink" x="0px" y="0px"
	 viewBox="0 0 25.8 31.5" style="enable-background:new 0 0 25.8 31.5;" xml:space="preserve">
<style type="text/css">
	.st0{fill:#fff;}
</style>
<path class="st0" d="M12.9,8.6c1.6,0,2.9-1.3,2.9-2.9c0-0.5-0.1-1-0.4-1.5L12.9,0l-2.4,4.3C10.2,4.7,10,5.2,10,5.7
	C10,7.3,11.3,8.6,12.9,8.6z M19.5,22.9L18,21.4l-1.5,1.5c-1.9,1.9-5.1,1.9-7,0l-1.5-1.5l-1.6,1.5c-0.9,0.9-2.2,1.4-3.5,1.4
	c-1,0-2-0.3-2.8-0.9v6.6c0,0.8,0.6,1.4,1.4,1.4h22.9c0.8,0,1.4-0.6,1.4-1.4v-6.6C25,24,24,24.4,23,24.4
	C21.7,24.4,20.4,23.8,19.5,22.9z M21.5,12.9h-7.2V10h-2.9v2.9H4.3c-2.4,0-4.3,1.9-4.3,4.3v2.2c0,1.5,1.3,2.8,2.8,2.8
	c0.7,0,1.5-0.3,2-0.8l3.1-3.1l3.1,3.1c1.1,1.1,2.9,1.1,4,0l3.1-3.1l3.1,3.1c0.5,0.5,1.2,0.8,2,0.8c1.5,0,2.8-1.3,2.8-2.8v-2.2
	C25.8,14.8,23.9,12.9,21.5,12.9z"/>
</svg>
