<?xml version="1.0" encoding="utf-8"?>
<!-- Generator: Adobe Illustrator 19.2.1, SVG Export Plug-In . SVG Version: 6.00 Build 0)  -->
<svg version="1.1" id="Layer_1" xmlns="http://www.w3.org/2000/svg" xmlns:xlink="http://www.w3.org/1999/xlink" x="0px" y="0px"
	 viewBox="0 0 48 48" style="enable-background:new 0 0 48 48;" xml:space="preserve">
<style type="text/css">
	.st0{fill:none;}
	.st1{fill:#CCCCCC;}
</style>
<g>
	<path class="st0" d="M0,0h48v48H0V0z"/>
	<path class="st1" d="M24,42.7l-2.9-2.6C10.8,30.7,4,24.6,4,17C4,10.8,8.8,6,15,6c3.5,0,6.8,1.6,9,4.2C26.2,7.6,29.5,6,33,6
		c6.2,0,11,4.8,11,11c0,7.6-6.8,13.7-17.1,23.1L24,42.7z"/>
</g>
</svg>
