<?xml version="1.0" encoding="utf-8"?>
<!-- Generator: Adobe Illustrator 19.2.0, SVG Export Plug-In . SVG Version: 6.00 Build 0)  -->
<svg version="1.1" id="Layer_1" xmlns="http://www.w3.org/2000/svg" xmlns:xlink="http://www.w3.org/1999/xlink" x="0px" y="0px"
	 viewBox="0 0 60 60" style="enable-background:new 0 0 60 60;" xml:space="preserve">
<style type="text/css">
	.st1{fill:none;}
	.st0{fill:#CCCCCC;}
</style>
<rect class="st1" width="60" height="60"/>
<g>
	<path class="st0" d="M8.2,45.5H7.9c-0.8,0-1.5-0.7-1.5-1.5V24.3c0-0.8,0.7-1.5,1.5-1.5h0.4c0.8,0,1.5,0.7,1.5,1.5V44
		C9.7,44.8,9,45.5,8.2,45.5z"/>
	<path class="st0" d="M9.4,24.3H6.7c-1.4,0-2.6-1.2-2.6-2.6V17c0-2.1,1.7-3.9,3.9-3.9h0.2c2.1,0,3.9,1.7,3.9,3.9v4.7
		C12,23.2,10.8,24.3,9.4,24.3z"/>
</g>
<g>
	<path class="st0" d="M50.3,45.5h-0.4c-0.8,0-1.5-0.7-1.5-1.5V24.2c0-0.8,0.7-1.5,1.5-1.5h0.4c0.8,0,1.5,0.7,1.5,1.5V44
		C51.7,44.8,51.1,45.5,50.3,45.5z"/>
	<path class="st0" d="M54,17.1v4.8c0,1.4-1.2,2.6-2.6,2.6h-2.7c-1.4,0-2.6-1.2-2.6-2.6v-4.8"/>
	<path class="st0" d="M46.9,19.1L46.9,19.1c-0.5,0-0.8-0.3-0.8-0.7v-4.7c0-0.4,0.3-0.7,0.7-0.7h0.1c0.4,0,0.7,0.3,0.7,0.7v4.7
		C47.6,18.8,47.3,19.1,46.9,19.1z"/>
	<path class="st0" d="M53.3,19.1L53.3,19.1c-0.5,0-0.8-0.3-0.8-0.7v-4.7c0-0.4,0.3-0.7,0.7-0.7h0.1c0.4,0,0.7,0.3,0.7,0.7v4.7
		C54,18.8,53.7,19.1,53.3,19.1z"/>
	<path class="st0" d="M51.2,19.1L51.2,19.1c-0.5,0-0.8-0.3-0.8-0.7v-4.7c0-0.4,0.3-0.7,0.7-0.7h0.1c0.4,0,0.7,0.3,0.7,0.7v4.7
		C51.9,18.8,51.6,19.1,51.2,19.1z"/>
	<path class="st0" d="M49,19.1L49,19.1c-0.5,0-0.8-0.3-0.8-0.7v-4.7c0-0.4,0.3-0.7,0.7-0.7H49c0.4,0,0.7,0.3,0.7,0.7v4.7
		C49.8,18.8,49.4,19.1,49,19.1z"/>
</g>
<path class="st0" d="M20.7,22c1.1-1.1,2.4-2,3.9-2.6c0.4-0.2,0.9,0,1.1,0.4c0.2,0.4,0,0.9-0.4,1.1c-1.3,0.5-2.4,1.3-3.4,2.3
	c-4,4-4,10.6,0,14.6c2,2,4.6,3,7.3,3c2.8,0,5.3-1.1,7.3-3c2-2,3-4.6,3-7.3c0-2.8-1.1-5.3-3-7.3c-1-1-2.1-1.7-3.4-2.3
	c-0.4-0.2-0.6-0.7-0.4-1.1c0.2-0.4,0.7-0.6,1.1-0.4c1.4,0.6,2.8,1.5,3.9,2.6c2.3,2.3,3.5,5.3,3.5,8.5c0,3.2-1.2,6.2-3.5,8.5
	c-2.3,2.3-5.3,3.5-8.5,3.5c-3.2,0-6.2-1.2-8.5-3.5C16.1,34.3,16.1,26.7,20.7,22 M29.2,20.4c0.4,0,0.8-0.4,0.8-0.8v-5
	c0-0.4-0.4-0.8-0.8-0.8c-0.4,0-0.8,0.4-0.8,0.8v5.1C28.4,20,28.8,20.4,29.2,20.4 M19.3,19.7c0.1,0.3,0.4,0.4,0.7,0.4
	c0.1,0,0.2,0,0.4-0.1c0.4-0.2,0.6-0.7,0.4-1.1l-1-2c-0.2-0.4-0.7-0.5-1.1-0.4c-0.4,0.2-0.5,0.7-0.4,1.1L19.3,19.7z M15.3,20
	c-0.2,0.4,0,0.9,0.4,1.1l2,1c0.1,0.1,0.2,0.1,0.4,0.1c0.3,0,0.6-0.2,0.7-0.4c0.2-0.4,0-0.9-0.4-1.1l-2-1C16,19.4,15.5,19.6,15.3,20
	 M38.6,44.1c0.1,0.3,0.4,0.4,0.7,0.4c0.1,0,0.2,0,0.4-0.1c0.4-0.2,0.5-0.7,0.4-1.1l-1-2c-0.2-0.4-0.7-0.5-1.1-0.4
	c-0.4,0.2-0.5,0.7-0.4,1.1L38.6,44.1z M42.4,41.5c0.3,0,0.6-0.2,0.7-0.4c0.2-0.4,0-0.9-0.4-1.1l-2-1c-0.4-0.2-0.9,0-1.1,0.4
	c-0.2,0.4,0,0.9,0.4,1.1l2,1C42.2,41.5,42.3,41.5,42.4,41.5 M25.9,23.8c-0.1,0.2-0.2,0.4-0.3,0.7c0.9-0.2,1.9-0.3,2.8-0.3v-1.5
	c0-0.4,0.4-0.8,0.8-0.8c0.4,0,0.8,0.4,0.8,0.8v1.5c1,0,1.9,0.1,2.8,0.3c-0.1-0.2-0.2-0.5-0.3-0.7c-0.2-0.4,0-0.9,0.4-1.1
	c0.4-0.2,0.9,0,1.1,0.4c0.3,0.6,0.5,1.2,0.8,1.9c0.7,0.2,1.3,0.5,1.9,0.8c0.4,0.2,0.5,0.7,0.4,1.1c-0.1,0.3-0.4,0.4-0.7,0.4
	c-0.1,0-0.2,0-0.4-0.1c-0.2-0.1-0.4-0.2-0.7-0.3c0.2,1,0.3,2,0.3,3.1h1.7c0.4,0,0.8,0.4,0.8,0.8c0,0.4-0.4,0.8-0.8,0.8h-1.7
	c0,0.9-0.1,1.8-0.3,2.6c0.2-0.1,0.5-0.2,0.7-0.3c0.4-0.2,0.9,0,1.1,0.4c0.2,0.4,0,0.9-0.4,1.1c-0.6,0.3-1.2,0.5-1.9,0.8
	c-0.2,0.7-0.5,1.3-0.8,1.9c-0.1,0.3-0.4,0.4-0.7,0.4c-0.1,0-0.2,0-0.4-0.1c-0.4-0.2-0.5-0.7-0.4-1.1c0.1-0.2,0.2-0.4,0.3-0.7
	c-0.9,0.2-1.9,0.3-2.8,0.3v2c0,0.4-0.4,0.8-0.8,0.8c-0.4,0-0.8-0.4-0.8-0.8v-2c-1,0-1.9-0.1-2.8-0.3c0.1,0.2,0.2,0.5,0.3,0.7
	c0.2,0.4,0,0.9-0.4,1.1c-0.1,0.1-0.2,0.1-0.4,0.1c-0.3,0-0.6-0.2-0.7-0.4c-0.3-0.6-0.5-1.2-0.8-1.9c-0.7-0.2-1.3-0.5-1.9-0.8
	c-0.4-0.2-0.5-0.7-0.4-1.1c0.2-0.4,0.7-0.5,1.1-0.4c0.2,0.1,0.4,0.2,0.7,0.3c-0.2-0.9-0.3-1.8-0.3-2.6h-1.7c-0.4,0-0.8-0.4-0.8-0.8
	c0-0.4,0.4-0.8,0.8-0.8h1.7c0-1,0.1-2.1,0.3-3.1c-0.2,0.1-0.5,0.2-0.7,0.3c-0.4,0.2-0.9,0-1.1-0.4c-0.2-0.4,0-0.9,0.4-1.1
	c0.6-0.3,1.2-0.5,1.9-0.8c0.2-0.7,0.5-1.3,0.8-1.9c0.2-0.4,0.7-0.5,1.1-0.4C25.9,22.9,26.1,23.4,25.9,23.8 M28.4,35.3v-3.7h-3.9
	c0.1,1.1,0.2,2.2,0.5,3.2C26.1,35.1,27.2,35.2,28.4,35.3 M33.9,31.5H30v3.7c1.2-0.1,2.3-0.2,3.4-0.5C33.7,33.7,33.9,32.6,33.9,31.5
	 M30,25.8v4.1H34c0-1.2-0.2-2.5-0.5-3.6C32.4,26,31.2,25.8,30,25.8 M25,26.3c-0.3,1.2-0.5,2.4-0.5,3.6h3.9v-4.1
	C27.2,25.8,26.1,26,25,26.3"/>
</svg>
