<?xml version="1.0" encoding="utf-8"?>
<!-- Generator: Adobe Illustrator 19.2.0, SVG Export Plug-In . SVG Version: 6.00 Build 0)  -->
<svg version="1.1" id="Layer_1" xmlns="http://www.w3.org/2000/svg" xmlns:xlink="http://www.w3.org/1999/xlink" x="0px" y="0px"
	 viewBox="0 0 49.9 31" style="enable-background:new 0 0 49.9 31;" xml:space="preserve">
<style type="text/css">
	.st0{fill:#CCCCCC;}
	.st1{fill:none;}
</style>
<g>
	<path class="st0" d="M14.7,30.7c1.2,0.7,2.6,1.1,4.1,1.1c4.1,0,7.5-3.1,8-7.1h2.1l0,0c0.5,0,0.9-0.4,0.9-0.9c0-0.3-0.1-0.5-0.3-0.7
		l-2.1-2.9c2.8-1.9,6.6-8.4,6.6-11.9c0-4.4-3.6-8.1-8.1-8.1c-4.4,0-8.1,3.6-8.1,8.1c0,3.4,3.6,10,6.6,11.9l-2.2,2.9
		c-0.2,0.3-0.2,0.7-0.1,1c0.1,0.3,0.5,0.5,0.8,0.5h1.9c-0.5,3-3,5.3-6.1,5.3c-1.3,0-2.5-0.4-3.5-1.1 M19.7,8.3
		c0-3.4,2.8-6.2,6.2-6.2c3.4,0,6.2,2.8,6.2,6.2c0,3.6-4.9,10.4-6.2,10.6C24.6,18.8,19.7,12,19.7,8.3z M24.8,22.8l1.1-1.4l1.1,1.4
		H24.8z"/>
	<path class="st0" d="M27.3,5.4c0.8,0.3,1.4,0.9,1.8,1.8c0.2,0.5,0.7,0.7,1.2,0.5c0.5-0.2,0.7-0.7,0.5-1.2c-0.5-1.3-1.5-2.2-2.8-2.7
		c-1.3-0.5-2.7-0.5-3.9,0c-2.6,1.1-3.8,4.1-2.7,6.7c0.1,0.3,0.5,0.6,0.8,0.6c0.1,0,0.2,0,0.3-0.1c0.5-0.2,0.7-0.7,0.5-1.2
		c-0.7-1.6,0.1-3.6,1.7-4.3C25.6,5.1,26.5,5.1,27.3,5.4z"/>
</g>
<rect x="-4.1" y="-13" class="st1" width="60" height="60"/>
<g>
	<path class="st0" d="M4.1,32.5H3.7c-0.8,0-1.5-0.7-1.5-1.5V11.4c0-0.8,0.7-1.5,1.5-1.5h0.4c0.8,0,1.5,0.7,1.5,1.5l0,19.7
		C5.6,31.9,4.9,32.5,4.1,32.5z"/>
	<path class="st0" d="M5.3,11.4H2.6C1.2,11.4,0,10.2,0,8.8L0,4c0-2.1,1.7-3.9,3.9-3.9H4c2.1,0,3.9,1.7,3.9,3.9v4.7
		C7.9,10.2,6.7,11.4,5.3,11.4z"/>
</g>
<g>
	<path class="st0" d="M46.2,32.5h-0.4c-0.8,0-1.5-0.7-1.5-1.5V11.2c0-0.8,0.7-1.5,1.5-1.5h0.4c0.8,0,1.5,0.7,1.5,1.5V31
		C47.6,31.9,47,32.5,46.2,32.5z"/>
	<path class="st0" d="M49.9,4.1v4.8c0,1.4-1.2,2.6-2.6,2.6h-2.7c-1.4,0-2.6-1.2-2.6-2.6V4.1"/>
	<path class="st0" d="M42.8,6.1L42.8,6.1c-0.5,0-0.8-0.3-0.8-0.7V0.7C42,0.3,42.3,0,42.7,0l0.1,0c0.4,0,0.7,0.3,0.7,0.7v4.7
		C43.5,5.8,43.2,6.1,42.8,6.1z"/>
	<path class="st0" d="M49.2,6.1L49.2,6.1c-0.5,0-0.8-0.3-0.8-0.7V0.7c0-0.4,0.3-0.7,0.7-0.7l0.1,0c0.4,0,0.7,0.3,0.7,0.7v4.7
		C49.9,5.8,49.6,6.1,49.2,6.1z"/>
	<path class="st0" d="M47.1,6.1L47.1,6.1c-0.5,0-0.8-0.3-0.8-0.7V0.7C46.3,0.3,46.6,0,47,0l0.1,0c0.4,0,0.7,0.3,0.7,0.7v4.7
		C47.8,5.8,47.5,6.1,47.1,6.1z"/>
	<path class="st0" d="M44.9,6.1L44.9,6.1c-0.5,0-0.8-0.3-0.8-0.7V0.7c0-0.4,0.3-0.7,0.7-0.7l0.1,0c0.4,0,0.7,0.3,0.7,0.7v4.7
		C45.6,5.8,45.3,6.1,44.9,6.1z"/>
</g>
</svg>
