<?xml version="1.0" encoding="utf-8"?>
<!-- Generator: Adobe Illustrator 19.2.0, SVG Export Plug-In . SVG Version: 6.00 Build 0)  -->
<svg version="1.1" id="Layer_1" xmlns="http://www.w3.org/2000/svg" xmlns:xlink="http://www.w3.org/1999/xlink" x="0px" y="0px"
	 viewBox="0 0 49.9 32.5" style="enable-background:new 0 0 49.9 32.5;" xml:space="preserve">
<style type="text/css">
	.st1{fill:none;}
	.st0{fill:#CCCCCC;}
</style>
<rect x="-4.1" y="-13" class="st1" width="60" height="60"/>
<g>
	<path class="st0" d="M4.1,32.5H3.7c-0.8,0-1.5-0.7-1.5-1.5V11.4c0-0.8,0.7-1.5,1.5-1.5h0.4c0.8,0,1.5,0.7,1.5,1.5l0,19.7
		C5.6,31.9,4.9,32.5,4.1,32.5z"/>
	<path class="st0" d="M5.3,11.4H2.6C1.2,11.4,0,10.2,0,8.8L0,4c0-2.1,1.7-3.9,3.9-3.9H4c2.1,0,3.9,1.7,3.9,3.9v4.7
		C7.9,10.2,6.7,11.4,5.3,11.4z"/>
</g>
<g>
	<path class="st0" d="M46.2,32.5h-0.4c-0.8,0-1.5-0.7-1.5-1.5V11.2c0-0.8,0.7-1.5,1.5-1.5h0.4c0.8,0,1.5,0.7,1.5,1.5V31
		C47.6,31.9,47,32.5,46.2,32.5z"/>
	<path class="st0" d="M49.9,4.1v4.8c0,1.4-1.2,2.6-2.6,2.6h-2.7c-1.4,0-2.6-1.2-2.6-2.6V4.1"/>
	<path class="st0" d="M42.8,6.1L42.8,6.1c-0.5,0-0.8-0.3-0.8-0.7V0.7C42,0.3,42.3,0,42.7,0l0.1,0c0.4,0,0.7,0.3,0.7,0.7v4.7
		C43.5,5.8,43.2,6.1,42.8,6.1z"/>
	<path class="st0" d="M49.2,6.1L49.2,6.1c-0.5,0-0.8-0.3-0.8-0.7V0.7c0-0.4,0.3-0.7,0.7-0.7l0.1,0c0.4,0,0.7,0.3,0.7,0.7v4.7
		C49.9,5.8,49.6,6.1,49.2,6.1z"/>
	<path class="st0" d="M47.1,6.1L47.1,6.1c-0.5,0-0.8-0.3-0.8-0.7V0.7C46.3,0.3,46.6,0,47,0l0.1,0c0.4,0,0.7,0.3,0.7,0.7v4.7
		C47.8,5.8,47.5,6.1,47.1,6.1z"/>
	<path class="st0" d="M44.9,6.1L44.9,6.1c-0.5,0-0.8-0.3-0.8-0.7V0.7c0-0.4,0.3-0.7,0.7-0.7l0.1,0c0.4,0,0.7,0.3,0.7,0.7v4.7
		C45.6,5.8,45.3,6.1,44.9,6.1z"/>
</g>
<g>
	<path class="st0" d="M28.3,10.8c0.6,0,1.2-0.5,1.2-1.2V6.1c0-0.6-0.5-1.2-1.2-1.2c-0.6,0-1.2,0.5-1.2,1.2v3.5
		C27.1,10.2,27.6,10.8,28.3,10.8z"/>
	<path class="st0" d="M25.1,10.8c0.6,0,1.2-0.5,1.2-1.2V4.4c0-0.6-0.5-1.2-1.2-1.2c-0.6,0-1.2,0.5-1.2,1.2v5.3
		C23.9,10.2,24.5,10.8,25.1,10.8z"/>
	<path class="st0" d="M21.9,10.8c0.6,0,1.2-0.5,1.2-1.2V6.1c0-0.6-0.5-1.2-1.2-1.2c-0.6,0-1.2,0.5-1.2,1.2v3.5
		C20.8,10.2,21.3,10.8,21.9,10.8z"/>
	<path class="st0" d="M36.6,26.4H13.6c-0.6,0-1.2,0.5-1.2,1.2c0,0.6,0.5,1.2,1.2,1.2h22.9c0.6,0,1.2-0.5,1.2-1.2
		C37.7,26.9,37.2,26.4,36.6,26.4z"/>
	<path class="st0" d="M40.1,12.9h-1.6c0-0.2,0-0.4,0-0.5c0-0.6-0.5-1.2-1.2-1.2H12.8c-0.6,0-1.2,0.5-1.2,1.2c0,0.2,0,0.4,0,0.5h-1.6
		c-0.6,0-1.2,0.5-1.2,1.2c0,0.6,0.5,1.2,1.2,1.2H12c1.4,5.6,6.7,9.8,13.1,9.8c6.4,0,11.7-4.2,13.1-9.8h1.9c0.6,0,1.2-0.5,1.2-1.2
		C41.3,13.5,40.7,12.9,40.1,12.9z M36.1,13.6c-0.6,5.2-5.4,9.1-11.1,9.1c-5.7,0-10.4-4-11.1-9.1H36.1z"/>
</g>
</svg>
