<?xml version="1.0" encoding="utf-8"?>
<!-- Generator: Adobe Illustrator 19.2.0, SVG Export Plug-In . SVG Version: 6.00 Build 0)  -->
<svg version="1.1" id="Layer_1" xmlns="http://www.w3.org/2000/svg" xmlns:xlink="http://www.w3.org/1999/xlink" x="0px" y="0px"
	 viewBox="0 0 40 36.7" style="enable-background:new 0 0 40 36.7;" xml:space="preserve">
<style type="text/css">
	.st0{fill:none;}
	.st1{fill:#FF3333;}
</style>
<g>
	<path class="st0" d="M-4-6h48v48H-4V-6z"/>
	<path class="st1" d="M20,36.7l-2.9-2.6C6.8,24.7,0,18.6,0,11C0,4.8,4.8,0,11,0c3.5,0,6.8,1.6,9,4.2C22.2,1.6,25.5,0,29,0
		c6.2,0,11,4.8,11,11c0,7.6-6.8,13.7-17.1,23.1L20,36.7z"/>
</g>
</svg>
