<?xml version="1.0" encoding="utf-8"?>
<!-- Generator: Adobe Illustrator 19.2.0, SVG Export Plug-In . SVG Version: 6.00 Build 0)  -->
<svg version="1.1" id="Layer_1" xmlns="http://www.w3.org/2000/svg" xmlns:xlink="http://www.w3.org/1999/xlink" x="0px" y="0px"
	 viewBox="0 0 1008 612" style="enable-background:new 0 0 1008 612;" xml:space="preserve">
<style type="text/css">
	.st0{fill:#CCCCCC;}
	.st1{fill:none;}
</style>
<path class="st0" d="M586.3,304.5h-32c-2.2,0-4,1.8-4,4l0,36l8-8h28c2.2,0,4-1.8,4-4v-24C590.3,306.3,588.5,304.5,586.3,304.5z
	 M558.3,318.5h24v4h-24V318.5z M574.3,328.5h-16v-4h16V328.5z M582.3,316.5h-24v-4h24V316.5z"/>
<path class="st1" d="M546.3,300.5h48v48h-48V300.5z"/>
</svg>
