<?xml version="1.0" encoding="utf-8"?>
<!-- Generator: Adobe Illustrator 19.2.0, SVG Export Plug-In . SVG Version: 6.00 Build 0)  -->
<svg version="1.1" id="Layer_1" xmlns="http://www.w3.org/2000/svg" xmlns:xlink="http://www.w3.org/1999/xlink" x="0px" y="0px"
	 viewBox="0 0 45 45" style="enable-background:new 0 0 45 45;" xml:space="preserve">
<style type="text/css">
	.st0{fill:#CCCCCC;}
</style>
<g>
	<path class="st0" d="M22.5,0C10.1,0,0,10.1,0,22.5C0,34.9,10.1,45,22.5,45S45,34.9,45,22.5C45,10.1,34.9,0,22.5,0z M22.5,42.8
		c-11.2,0-20.3-9.1-20.3-20.3c0-11.2,9.1-20.3,20.3-20.3s20.3,9.1,20.3,20.3C42.8,33.7,33.7,42.8,22.5,42.8z"/>
</g>
<g>
	<path class="st0" d="M37.9,17.8l-6.1-6.1c-0.2-0.2-0.6-0.2-0.8,0l-5.9,5.9c-1,1-1,2.6,0,3.6l0.9,0.9l-8.7,8.7c-0.4,0.4-0.4,1,0,1.4
		l0.2,0.2c0.4,0.4,1,0.4,1.4,0l8.7-8.7l0.9,0.9c1,1,2.6,1,3.6,0l5.9-5.9C38.1,18.4,38.1,18,37.9,17.8z M28,18.4
		c-0.2,0.2-0.6,0.2-0.8,0s-0.2-0.6,0-0.8l3.9-3.9c0.2-0.2,0.6-0.2,0.8,0c0.2,0.2,0.2,0.6,0,0.8L28,18.4z M33.1,15.6
		c0.2-0.2,0.6-0.2,0.8,0l0,0c0.2,0.2,0.2,0.6,0,0.8L30,20.3c-0.2,0.2-0.6,0.2-0.8,0l0,0c-0.2-0.2-0.2-0.6,0-0.8L33.1,15.6z
		 M31.9,22.3c-0.2,0.2-0.6,0.2-0.8,0c-0.2-0.2-0.2-0.6,0-0.8l3.9-3.9c0.2-0.2,0.6-0.2,0.8,0c0.2,0.2,0.2,0.6,0,0.8L31.9,22.3z"/>
	<path class="st0" d="M11.3,14.6C9,16.9,9,20.7,11.3,23c2.1,2.1,5.3,2.3,7.6,0.7l8.6,8.6c0.4,0.4,1,0.4,1.4,0l0.2-0.2
		c0.4-0.4,0.4-1,0-1.4l-8.6-8.6c1.6-2.3,1.4-5.5-0.7-7.6C17.4,12.2,13.6,12.2,11.3,14.6z M16.2,15c0.2-0.2,0.5-0.2,0.7,0
		c0.2,0.2,0.2,0.5,0,0.7c-0.2,0.2-0.5,0.2-0.7,0C16,15.5,16,15.2,16.2,15z M15.3,16.6c0.2-0.2,0.5-0.2,0.7,0c0.2,0.2,0.2,0.5,0,0.7
		c-0.2,0.2-0.5,0.2-0.7,0C15.1,17.1,15.1,16.8,15.3,16.6z M17.2,19.2c-0.2-0.2-0.2-0.5,0-0.7c0.2-0.2,0.5-0.2,0.7,0
		c0.2,0.2,0.2,0.5,0,0.7C17.7,19.4,17.4,19.4,17.2,19.2z M18.5,21c0.2,0.2,0.2,0.4,0.1,0.6c0,0,0,0.1-0.1,0.1c0,0-0.1,0.1-0.2,0.1
		c-0.2,0.1-0.4,0-0.5-0.1c0,0,0,0,0,0c0,0,0,0,0,0c-0.2-0.2-0.2-0.5,0-0.7C18,20.8,18.3,20.8,18.5,21C18.5,21,18.5,21,18.5,21
		C18.5,21,18.5,21,18.5,21z M15.2,19.1c-0.2-0.2-0.2-0.5,0-0.7c0.2-0.2,0.5-0.2,0.7,0c0.2,0.2,0.2,0.5,0,0.7
		C15.8,19.3,15.4,19.3,15.2,19.1z M12.7,16c0.1-0.1,0.1-0.1,0.2-0.1c0.2-0.1,0.4,0,0.5,0.1c0.2,0.2,0.2,0.5,0,0.7
		c-0.1,0.1-0.1,0.1-0.2,0.1c-0.2,0.1-0.4,0-0.5-0.1C12.6,16.5,12.6,16.2,12.7,16z M14.2,18.5c0.2,0.2,0.2,0.5,0,0.7
		c-0.2,0.2-0.5,0.2-0.7,0c-0.2-0.2-0.2-0.5,0-0.7C13.6,18.3,14,18.3,14.2,18.5z M12.9,21.7C12.9,21.7,12.9,21.7,12.9,21.7
		C12.8,21.7,12.8,21.7,12.9,21.7c-0.3-0.3-0.3-0.6-0.1-0.8c0.2-0.2,0.5-0.2,0.7,0c0,0,0,0,0,0c0,0,0,0,0,0c0.2,0.2,0.2,0.5,0,0.7
		C13.4,21.9,13.1,21.9,12.9,21.7z M15.1,22.6c-0.2,0.2-0.5,0.2-0.7,0s-0.2-0.5,0-0.7c0.2-0.2,0.5-0.2,0.7,0
		C15.3,22.1,15.3,22.4,15.1,22.6z M12.6,20c-0.2,0.2-0.5,0.2-0.7,0c-0.2-0.2-0.2-0.5,0-0.7c0.2-0.2,0.5-0.2,0.7,0S12.8,19.8,12.6,20
		z M11.9,17.6c0.2-0.2,0.5-0.2,0.7,0c0.2,0.2,0.2,0.5,0,0.7c-0.2,0.2-0.5,0.2-0.7,0C11.7,18.1,11.7,17.8,11.9,17.6z M16.9,22.6
		c-0.2,0.2-0.5,0.2-0.7,0s-0.2-0.5,0-0.7c0.2-0.2,0.5-0.2,0.7,0S17.1,22.4,16.9,22.6z M16,21c-0.2,0.2-0.5,0.2-0.7,0
		c-0.2-0.2-0.2-0.5,0-0.7c0.2-0.2,0.5-0.2,0.7,0C16.2,20.5,16.2,20.8,16,21z M19.4,20.1c-0.2,0.2-0.5,0.2-0.7,0
		c-0.2-0.2-0.2-0.5,0-0.7c0.2-0.2,0.5-0.2,0.7,0C19.6,19.6,19.6,19.9,19.4,20.1z M15.1,15.8c-0.2,0.2-0.5,0.2-0.7,0
		c-0.2-0.2-0.2-0.5,0-0.7c0.2-0.2,0.5-0.2,0.7,0C15.3,15.2,15.3,15.6,15.1,15.8z M19.4,18.3c-0.2,0.2-0.5,0.2-0.7,0
		c-0.2-0.2-0.2-0.5,0-0.7s0.5-0.2,0.7,0C19.6,17.8,19.6,18.1,19.4,18.3z M18.6,16.1c0.1,0.2,0.1,0.4-0.1,0.6c-0.2,0.2-0.5,0.2-0.7,0
		c-0.1-0.1-0.1-0.1-0.1-0.2c-0.1-0.2-0.1-0.4,0.1-0.6c0.2-0.2,0.5-0.2,0.7,0C18.5,16,18.6,16.1,18.6,16.1z"/>
</g>
</svg>
