<?xml version="1.0" encoding="utf-8"?>
<!-- Generator: Adobe Illustrator 19.2.0, SVG Export Plug-In . SVG Version: 6.00 Build 0)  -->
<svg version="1.1" id="Layer_1" xmlns="http://www.w3.org/2000/svg" xmlns:xlink="http://www.w3.org/1999/xlink" x="0px" y="0px"
	 viewBox="0 0 60 60" style="enable-background:new 0 0 60 60;" xml:space="preserve">
<style type="text/css">
	.st0{fill:#CCCCCC;}
	.st1{fill:none;}
</style>
<g>
	<path class="st0" d="M28,39.5c0,0.8,0.7,1.5,1.5,1.5s1.5-0.7,1.5-1.5S30.3,38,29.5,38S28,38.7,28,39.5z M28,18.7v6h3v-2.9
		c5,0.7,8.9,5,8.9,10.3c0,5.8-4.7,10.4-10.4,10.4s-10.4-4.7-10.4-10.4c0-2.5,0.9-4.8,2.4-6.6l8.1,8.1l2.1-2.1L21.5,21.4v0
		c-3.3,2.4-5.4,6.3-5.4,10.7c0,7.4,6,13.4,13.4,13.4c7.4,0,13.4-6,13.4-13.4s-6-13.4-13.4-13.4H28z M38.4,32.1
		c0-0.8-0.7-1.5-1.5-1.5s-1.5,0.7-1.5,1.5c0,0.8,0.7,1.5,1.5,1.5S38.4,32.9,38.4,32.1z M20.6,32.1c0,0.8,0.7,1.5,1.5,1.5
		s1.5-0.7,1.5-1.5c0-0.8-0.7-1.5-1.5-1.5S20.6,31.3,20.6,32.1z"/>
	<path class="st0" d="M33,17.8c0.1-0.3,0.2-0.7,0.2-1.1c0-2.1-1.7-3.8-3.8-3.8c-2.1,0-3.8,1.7-3.8,3.8c0,0.4,0,0.7,0.2,1.1
		c1.2-0.3,2.4-0.4,3.6-0.4C30.6,17.4,31.8,17.5,33,17.8z"/>
</g>
<rect class="st1" width="60" height="60"/>
<g>
	<path class="st0" d="M8.2,45.5H7.9c-0.8,0-1.5-0.7-1.5-1.5V24.3c0-0.8,0.7-1.5,1.5-1.5h0.4c0.8,0,1.5,0.7,1.5,1.5V44
		C9.7,44.8,9,45.5,8.2,45.5z"/>
	<path class="st0" d="M9.4,24.3H6.7c-1.4,0-2.6-1.2-2.6-2.6V17c0-2.1,1.7-3.9,3.9-3.9h0.2c2.1,0,3.9,1.7,3.9,3.9v4.7
		C12,23.2,10.8,24.3,9.4,24.3z"/>
</g>
<g>
	<path class="st0" d="M50.3,45.5h-0.4c-0.8,0-1.5-0.7-1.5-1.5V24.2c0-0.8,0.7-1.5,1.5-1.5h0.4c0.8,0,1.5,0.7,1.5,1.5V44
		C51.7,44.8,51.1,45.5,50.3,45.5z"/>
	<path class="st0" d="M54,17.1v4.8c0,1.4-1.2,2.6-2.6,2.6h-2.7c-1.4,0-2.6-1.2-2.6-2.6v-4.8"/>
	<path class="st0" d="M46.9,19.1L46.9,19.1c-0.5,0-0.8-0.3-0.8-0.7v-4.7c0-0.4,0.3-0.7,0.7-0.7h0.1c0.4,0,0.7,0.3,0.7,0.7v4.7
		C47.6,18.8,47.3,19.1,46.9,19.1z"/>
	<path class="st0" d="M53.3,19.1L53.3,19.1c-0.5,0-0.8-0.3-0.8-0.7v-4.7c0-0.4,0.3-0.7,0.7-0.7h0.1c0.4,0,0.7,0.3,0.7,0.7v4.7
		C54,18.8,53.7,19.1,53.3,19.1z"/>
	<path class="st0" d="M51.2,19.1L51.2,19.1c-0.5,0-0.8-0.3-0.8-0.7v-4.7c0-0.4,0.3-0.7,0.7-0.7h0.1c0.4,0,0.7,0.3,0.7,0.7v4.7
		C51.9,18.8,51.6,19.1,51.2,19.1z"/>
	<path class="st0" d="M49,19.1L49,19.1c-0.5,0-0.8-0.3-0.8-0.7v-4.7c0-0.4,0.3-0.7,0.7-0.7H49c0.4,0,0.7,0.3,0.7,0.7v4.7
		C49.8,18.8,49.4,19.1,49,19.1z"/>
</g>
</svg>
